Handling Dates and Times in R | Samuel David Gamboa-Tuz, Ph.D.
…
Let’s start by importing the dataset. I removed four columns containing my
address information beforehand. Still, I won’t be sharing the full dataset since it contains detailed information about the starting and ending times of each of my rides. However, you can try the code posted here with you’re own Uber data.

I’ll import the dataset with the readr::read_csv() function and check its
structure.

# Open file
filename <- "./_files/trips_data.csv"
uber_data <- read_csv(filename)

# See first rows of data
uber_data

## # A tibble: 184 x 9
##    City  `Product Type` `Trip or Order … `Request Time` `Begin Trip Tim…
##    <chr> <chr>          <chr>            <chr>          <chr>           
##  1 Meri… UberX          COMPLETED        2019-09-15 00… 2019-09-15 00:5…
##  2 Meri… UberX          COMPLETED        2019-09-14 19… 2019-09-14 19:0…
##  3 Meri… UberX          COMPLETED        2019-09-14 04… 2019-09-14 04:1…
##  4 Meri… UberX          COMPLETED        2019-09-07 04… 2019-09-07 04:3…
##  5 Meri… UberX          COMPLETED        2019-09-02 14… 2019-09-02 14:0…
##  6 Meri… UberX          COMPLETED        2019-08-30 19… 2019-08-30 19:0…
##  7 Meri… UberX          COMPLETED        2019-08-06 02… 2019-08-06 02:3…
##  8 Meri… UberX          COMPLETED        2019-07-21 18… 2019-07-21 18:4…
##  9 Meri… UberX          COMPLETED        2019-07-07 13… 2019-07-07 14:0…
## 10 Meri… UberX          COMPLETED        2019-06-29 03… 2019-06-29 03:2…
## # … with 174 more rows, and 4 more variables: `Dropoff Time` <chr>, `Distance
## #   (miles)` <dbl>, `Fare Amount` <dbl>, `Fare Currency` <chr>
…
I don’t need all of this information. I only want to analyze the trips that happened in
Merida, where I’m from and where most of the trips occurred. I don’t need the
Product Type nor the Fare Currency columns since they both contain a single type of value each. So, I’ll only keep the distance, fare, and date-time data of the completed rides. Also, I need to change the names of the columns for ones that are easier to write.

uber_data <- uber_data %>%
  filter(City == "Merida", `Trip or Order Status` == "COMPLETED") %>% 
  select(request_time = `Request Time`, begin_time = `Begin Trip Time`,
         dropoff_time = `Dropoff Time`, distance = `Distance (miles)`,
         fare = `Fare Amount`)

uber_data

## # A tibble: 173 x 5
##    request_time          begin_time          dropoff_time         distance  fare
##    <chr>                 <chr>               <chr>                   <dbl> <dbl>
##  1 2019-09-15 00:45:08 … 2019-09-15 00:52:0… 2019-09-15 01:00:35…     1.82  63.2
##  2 2019-09-14 19:02:06 … 2019-09-14 19:06:3… 2019-09-14 19:10:24…     0.94  22.8
##  3 2019-09-14 04:09:58 … 2019-09-14 04:15:4… 2019-09-14 04:23:46…     2.49  37.7
##  4 2019-09-07 04:27:39 … 2019-09-07 04:30:0… 2019-09-07 04:34:55…     1.41  26.7
##  5 2019-09-02 14:04:26 … 2019-09-02 14:06:4… 2019-09-02 14:12:28…     1.12  25.4
##  6 2019-08-30 19:01:33 … 2019-08-30 19:07:1… 2019-08-30 19:21:54…     1.4   36.3
##  7 2019-08-06 02:31:16 … 2019-08-06 02:34:4… 2019-08-06 02:48:46…     3.74  52.9
##  8 2019-07-21 18:36:19 … 2019-07-21 18:40:1… 2019-07-21 18:55:17…     3.34  62.3
##  9 2019-07-07 13:54:41 … 2019-07-07 14:01:0… 2019-07-07 14:14:24…     5.95  56.1
## 10 2019-06-29 03:20:57 … 2019-06-29 03:26:4… 2019-06-29 03:44:50…     4     58.1
## # … with 163 more rows
…
Usually, read_csv() does a good job in guessing how dates and times are stored when they’re in ISO 8601 format,
but in this case the UTC offset is not recognized (+0000). So, I need to parse it explicity with the
readr::parse_datetime() function. Also, I want to convert the time format from UTC to local time for an easier use.

my_time_zone <- Sys.timezone() # I'm in "America/Merida" time zone at the moment of writing this post. Check OlsonNames() for more time zones.

uber_data <- uber_data %>% 
  map_if(is.character,
         ~readr::parse_datetime(.x,
                         format = "%Y-%m-%d %H:%M:%S %z %Z",
                         locale = locale(tz = my_time_zone))) %>%
  as_tibble()
uber_data

## # A tibble: 173 x 5
##    request_time        begin_time          dropoff_time        distance  fare
##    <dttm>              <dttm>              <dttm>                 <dbl> <dbl>
##  1 2019-09-14 19:45:08 2019-09-14 19:52:08 2019-09-14 20:00:35     1.82  63.2
##  2 2019-09-14 14:02:06 2019-09-14 14:06:36 2019-09-14 14:10:24     0.94  22.8
##  3 2019-09-13 23:09:58 2019-09-13 23:15:48 2019-09-13 23:23:46     2.49  37.7
##  4 2019-09-06 23:27:39 2019-09-06 23:30:06 2019-09-06 23:34:55     1.41  26.7
##  5 2019-09-02 09:04:26 2019-09-02 09:06:49 2019-09-02 09:12:28     1.12  25.4
##  6 2019-08-30 14:01:33 2019-08-30 14:07:15 2019-08-30 14:21:54     1.4   36.3
##  7 2019-08-05 21:31:16 2019-08-05 21:34:49 2019-08-05 21:48:46     3.74  52.9
##  8 2019-07-21 13:36:19 2019-07-21 13:40:11 2019-07-21 13:55:17     3.34  62.3
##  9 2019-07-07 08:54:41 2019-07-07 09:01:06 2019-07-07 09:14:24     5.95  56.1
## 10 2019-06-28 22:20:57 2019-06-28 22:26:41 2019-06-28 22:44:50     4     58.1
## # … with 163 more rows
…
